[
  {
    "leavetype": "A",
    "leavename": "公假"
  },
  {
    "leavetype": "B",
    "leavename": "年假"
  },
  {
    "leavetype": "C",
    "leavename": "事假"
  },
  {
    "leavetype": "D",
    "leavename": "病假"
  },
  {
    "leavetype": "E",
    "leavename": "喪假"
  },
  {
    "leavetype": "F",
    "leavename": "陪產假"
  },
  {
    "leavetype": "G",
    "leavename": "產假"
  }
]